(footprint "TSFP-4-1_Common-2-4_HandSolder" (version 20211014) (generator pcbnew)
  (layer "F.Cu")
  (tedit 0)
  (attr smd)
  (fp_text reference "REF**" (at 0 -1.4 unlocked) (layer "F.SilkS")
    (effects (font (size 1 1) (thickness 0.15)))
    (tstamp 06ed08ce-ccdd-4da8-b83e-369fc6c249ce)
  )
  (fp_text value "TSFP-4-1_Common-2-4" (at 0 2.8 unlocked) (layer "User.1")
    (effects (font (size 1 1) (thickness 0.15)))
    (tstamp bef4875d-2ba7-4b3f-80f9-08260661c87b)
  )
  (fp_text user "${REFERENCE}" (at 0 1.5 unlocked) (layer "F.Fab")
    (effects (font (size 1 1) (thickness 0.15)))
    (tstamp 7cf70c84-5877-47ca-a599-ce68ac8adc3e)
  )
  (fp_line (start 0.4 -0.18) (end 0.4 0.18) (layer "F.SilkS") (width 0.12) (tstamp a7e4dd03-e448-4eeb-8568-f84b3a51ad48))
  (fp_line (start -0.3 0.7) (end 0.3 0.7) (layer "F.SilkS") (width 0.1) (tstamp bff82532-6c89-424c-9827-47d2ac22d741))
  (fp_line (start -0.4 -0.18) (end -0.4 0.18) (layer "F.SilkS") (width 0.12) (tstamp de2e6662-2b82-49ec-be0b-e5cca388f995))
  (fp_rect (start -0.3 -0.7) (end 0.3 -0.475) (layer "F.SilkS") (width 0.1) (fill solid) (tstamp 30355db9-f922-47e8-af5d-ba5a3e59dfe9))
  (pad "1" smd rect (at -0.7 -0.5) (size 0.7 0.5) (layers "F.Cu" "F.Paste" "F.Mask") (tstamp 4767a239-eae8-4781-b365-1fd3562611fc))
  (pad "2" smd rect (at 0.7 -0.5) (size 0.7 0.5) (layers "F.Cu" "F.Paste" "F.Mask") (tstamp 12f7b3d5-337c-4421-a278-b34580c3877a))
  (pad "2" smd rect (at -0.7 0.5) (size 0.7 0.5) (layers "F.Cu" "F.Paste" "F.Mask") (tstamp fb7ab973-8635-4c43-bec4-09a166ddb897))
  (pad "3" smd rect (at 0.7 0.5) (size 0.7 0.5) (layers "F.Cu" "F.Paste" "F.Mask") (tstamp d817891f-8b9d-4ccb-8dca-4e843bedf2bd))
)
